<?xml version="1.0" standalone="no"?>
<!DOCTYPE svg PUBLIC "-//W3C//DTD SVG 20010904//EN"
 "http://www.w3.org/TR/2001/REC-SVG-20010904/DTD/svg10.dtd">
<svg version="1.0" xmlns="http://www.w3.org/2000/svg"
 width="350.000000pt" height="266.000000pt" viewBox="0 0 350.000000 266.000000"
 preserveAspectRatio="xMidYMid meet">
<metadata>
Created by potrace 1.16, written by Peter Selinger 2001-2019
</metadata>
<g transform="translate(0.000000,266.000000) scale(0.100000,-0.100000)"
fill="#000000" stroke="none">
<path d="M10 1325 l0 -1325 388 0 387 1 108 188 c59 103 107 195 107 203 0 23
-36 50 -62 46 -18 -2 -44 -39 -123 -175 l-100 -173 -302 0 -303 0 0 1230 0
1230 1640 0 1640 0 0 -1230 0 -1230 -1100 0 -1099 0 -11 -21 c-7 -11 -9 -32
-6 -45 l6 -24 1160 0 1160 0 0 1325 0 1325 -1745 0 -1745 0 0 -1325z"/>
<path d="M440 1745 l0 -325 50 0 50 0 0 325 0 325 -50 0 -50 0 0 -325z"/>
<path d="M2300 1745 l0 -325 50 0 50 0 2 172 3 172 45 28 c63 39 100 44 130
20 25 -20 25 -22 28 -206 l3 -186 50 0 51 0 -4 198 c-3 219 -10 247 -70 278
-47 24 -146 14 -198 -20 l-40 -26 0 110 0 110 -50 0 -50 0 0 -325z"/>
<path d="M2873 2038 l-43 -9 0 -65 0 -64 -35 0 c-38 0 -42 -10 -25 -54 7 -19
17 -26 35 -26 l25 0 0 -166 c0 -171 5 -195 44 -226 27 -22 142 -24 191 -4 40
17 38 13 24 55 -9 24 -16 31 -28 26 -9 -4 -35 -10 -58 -12 -70 -9 -73 -3 -73
173 l0 153 63 3 62 3 0 35 0 35 -62 3 -63 3 0 74 c0 41 -3 75 -7 74 -5 -1 -27
-5 -50 -11z"/>
<path d="M786 1881 l-56 -30 0 25 c0 22 -4 24 -45 24 l-45 0 0 -240 0 -240 50
0 50 0 0 169 0 170 33 24 c17 14 49 30 71 37 34 11 41 10 65 -7 l26 -20 3
-187 2 -186 50 0 50 0 0 190 c0 143 -4 199 -14 225 -33 78 -139 99 -240 46z"/>
<path d="M1214 1896 c-69 -31 -104 -103 -84 -174 15 -56 46 -81 121 -93 85
-15 109 -31 109 -73 0 -53 -29 -71 -109 -69 -36 0 -78 6 -93 12 -25 9 -28 8
-34 -14 -15 -61 5 -72 139 -74 126 -2 185 41 195 139 9 92 -38 143 -145 156
-66 9 -93 27 -93 64 0 48 34 63 132 59 l82 -4 7 35 c4 19 6 37 3 39 -2 2 -48
6 -101 8 -70 2 -107 -1 -129 -11z"/>
<path d="M1887 1896 c-77 -29 -117 -86 -117 -166 0 -79 20 -112 98 -166 2 -1
-5 -17 -14 -37 -21 -44 -12 -82 24 -100 15 -8 62 -17 105 -20 97 -7 130 -25
125 -69 -5 -50 -46 -73 -128 -73 -90 0 -125 23 -125 82 0 41 -18 73 -40 73
-19 0 -55 -62 -55 -94 0 -46 27 -83 77 -107 40 -20 64 -24 138 -24 77 0 98 4
139 25 80 41 109 127 66 197 -27 44 -53 56 -148 63 -92 8 -110 17 -93 49 9 16
21 21 49 21 146 0 238 115 188 235 l-15 35 35 0 c33 0 34 1 34 40 l0 40 -63 0
c-35 0 -104 2 -153 5 -64 4 -100 1 -127 -9z m137 -70 c44 -18 66 -52 66 -99 0
-116 -182 -143 -218 -33 -11 34 -10 43 5 75 11 21 32 43 53 53 42 22 51 22 94
4z"/>
<path d="M1537 1893 c-3 -5 -8 -23 -12 -40 -6 -32 -5 -33 24 -33 l31 0 0 -200
0 -200 50 0 50 0 0 240 0 240 -69 0 c-39 0 -72 -3 -74 -7z"/>
<path d="M560 865 c0 -147 1 -155 20 -155 18 0 20 8 22 112 l3 112 69 -112
c56 -92 73 -112 92 -112 l24 0 0 155 c0 148 -1 155 -20 155 -19 0 -20 -7 -20
-110 0 -60 -3 -110 -7 -110 -5 0 -39 50 -76 110 -49 79 -74 110 -88 110 -18 0
-19 -8 -19 -155z"/>
<path d="M843 1008 c2 -7 28 -77 57 -155 40 -107 58 -143 70 -143 13 0 32 38
74 148 31 81 56 151 56 156 0 4 -10 6 -21 4 -17 -2 -30 -25 -64 -118 -39 -103
-44 -112 -53 -90 -5 14 -25 67 -43 117 -30 81 -37 93 -58 93 -14 0 -21 -5 -18
-12z"/>
<path d="M1160 865 l0 -155 90 0 c83 0 90 1 90 20 0 18 -7 20 -70 20 l-70 0 0
50 0 50 60 0 c53 0 60 2 60 20 0 18 -7 20 -60 20 l-60 0 0 45 0 45 65 0 c58 0
65 2 65 20 0 18 -7 20 -85 20 l-85 0 0 -155z"/>
<path d="M1436 997 c-19 -19 -26 -37 -26 -65 0 -48 22 -70 81 -83 24 -6 49
-15 56 -21 22 -18 15 -56 -13 -74 -21 -14 -33 -15 -72 -6 -45 10 -61 5 -62
-20 0 -14 83 -30 119 -23 54 10 81 40 81 91 0 52 -24 79 -78 89 -53 10 -72 23
-72 49 0 37 23 49 84 43 44 -4 56 -2 60 10 9 23 2 27 -69 31 -58 4 -66 2 -89
-21z"/>
<path d="M1660 1000 c0 -17 7 -20 40 -20 l40 0 0 -135 c0 -128 1 -135 20 -135
18 0 20 8 22 133 l3 132 43 3 c34 3 42 7 42 23 0 18 -8 19 -105 19 -98 0 -105
-1 -105 -20z"/>
<path d="M1936 918 c-4 -57 -10 -127 -13 -155 -5 -48 -4 -53 14 -53 23 0 32
35 34 125 1 96 12 92 50 -17 50 -143 62 -143 114 2 44 123 51 121 54 -12 1
-81 7 -98 33 -98 19 0 20 5 14 53 -3 28 -8 98 -12 155 l-7 102 -26 0 c-25 0
-30 -8 -65 -103 -20 -56 -40 -108 -44 -114 -4 -6 -25 40 -47 103 -36 107 -40
114 -65 114 l-27 0 -7 -102z"/>
<path d="M2320 865 l0 -155 85 0 c78 0 85 2 85 20 0 18 -7 20 -65 20 l-65 0 0
50 0 50 60 0 c53 0 60 2 60 20 0 18 -7 20 -60 20 l-60 0 0 45 0 45 65 0 c58 0
65 2 65 20 0 18 -7 20 -85 20 l-85 0 0 -155z"/>
<path d="M2570 865 c0 -147 1 -155 20 -155 18 0 20 8 22 113 l3 112 69 -112
c56 -92 73 -113 93 -113 l23 0 0 155 c0 148 -1 155 -20 155 -19 0 -20 -7 -20
-110 0 -60 -3 -110 -7 -110 -5 0 -39 50 -76 110 -49 79 -74 110 -88 110 -18 0
-19 -8 -19 -155z"/>
<path d="M2860 1000 c0 -17 7 -20 45 -20 l45 0 0 -135 c0 -128 1 -135 20 -135
19 0 20 7 20 135 l0 135 45 0 c38 0 45 3 45 20 0 19 -7 20 -110 20 -103 0
-110 -1 -110 -20z"/>
</g>
</svg>
